<svg width="25" height="25" viewBox="0 0 25 25" fill="none" xmlns="http://www.w3.org/2000/svg">
<g clip-path="url(#clip0)">
<path d="M12.5 25.0002C5.625 25.0002 0 19.3752 0 12.5002C0 5.62518 5.625 0.000183105 12.5 0.000183105C19.375 0.000183105 25 5.62518 25 12.5002C25 19.3752 19.375 25.0002 12.5 25.0002ZM12.5 1.25018C6.25 1.25018 1.25 6.25018 1.25 12.5002C1.25 18.7502 6.25 23.7502 12.5 23.7502C18.75 23.7502 23.75 18.7502 23.75 12.5002C23.75 6.25018 18.75 1.25018 12.5 1.25018Z" fill="black"/>
<path d="M9.37481 7.19501H8.62481C8.37481 7.19501 8.12481 7.19501 7.99981 7.44501C7.49981 7.69501 6.99981 8.32001 6.74981 9.19501C6.49981 10.32 6.87481 11.82 7.99981 13.32C9.12481 14.82 11.1248 17.195 14.6248 18.195C15.7498 18.445 16.6248 18.32 17.3748 17.945C17.8748 17.57 18.2498 17.07 18.3748 16.445L18.4998 15.945C18.4998 15.82 18.4998 15.57 18.2498 15.57L15.7498 14.445C15.6248 14.445 15.3748 14.445 15.2498 14.57L14.2498 15.82C14.2498 15.945 14.1248 15.945 13.9998 15.945C13.3748 15.695 10.9998 14.82 9.74981 12.32C9.74981 12.195 9.74981 12.07 9.74981 12.07L10.6248 10.945C10.7498 10.82 10.7498 10.695 10.6248 10.57L9.62481 7.57001C9.62481 7.32001 9.49981 7.19501 9.37481 7.19501Z" fill="black"/>
</g>
<defs>
<clipPath id="clip0">
<rect width="25" height="25" fill="white"/>
</clipPath>
</defs>
</svg>
