<svg width="17" height="17" viewBox="0 0 17 17" fill="none" xmlns="http://www.w3.org/2000/svg">
<path fill-rule="evenodd" clip-rule="evenodd" d="M10.5599 9.49914L16.0607 14.9999L15 16.0606L9.49924 10.5598L10.5599 9.49914Z" fill="black"/>
<path fill-rule="evenodd" clip-rule="evenodd" d="M0.25 6.6C0.25 3.093 3.093 0.25 6.6 0.25C10.107 0.25 12.95 3.093 12.95 6.6C12.95 10.107 10.107 12.95 6.6 12.95C3.093 12.95 0.25 10.107 0.25 6.6ZM6.6 1.75C3.92142 1.75 1.75 3.92142 1.75 6.6C1.75 9.27858 3.92142 11.45 6.6 11.45C9.27858 11.45 11.45 9.27858 11.45 6.6C11.45 3.92142 9.27858 1.75 6.6 1.75Z" fill="black"/>
</svg>
